DSPR Chapter 2
…
There are almost 8 times as many married males as there are married females. It appears roughly 15% of females are married while 61% of males are.

Create a new data set that has only records whose age value is greater than 40. Name the new data set adultOver40.

adultOver40 <- adult[adult$age > 40, ]
adultOver40

# A tibble: 6,144 × 9
     age workclass    education `marital-status` occupation sex   `capital-gain`
   <dbl> <chr>            <dbl> <chr>            <chr>      <chr>          <dbl>
 1    50 Self-emp-no…        13 Married-civ-spo… Exec-mana… Male               0
 2    49 Private              5 Married-spouse-… Other-ser… Fema…              0
 3    52 Self-emp-no…         9 Married-civ-spo… Exec-mana… Male               0
 4    43 Private              7 Married-civ-spo… Transport… Male               0
 5    54 ?                   10 Married-civ-spo… ?          Male               0
 6    44 Private             14 Divorced         Exec-mana… Fema…              0
 7    50 Federal-gov         13 Divorced         Exec-mana… Male               0
 8    47 Self-emp-inc         9 Divorced         Exec-mana… Male               0
 9    43 Private             10 Married-civ-spo… Tech-supp… Male               0
10    53 Private              9 Married-civ-spo… Adm-cleri… Fema…              0
# ℹ 6,134 more rows
# ℹ 2 more variables: `capital-loss` <dbl>, income <chr>
…
